%YAML 1.1
%TAG !u! tag:unity3d.com,2011:
--- !u!64 &569432668
MeshCollider:
  m_ObjectHideFlags: 0
  m_CorrespondingSourceObject: {fileID: 0}
  m_PrefabInstance: {fileID: 0}
  m_PrefabAsset: {fileID: 0}
  m_GameObject: {fileID: 8357476095418497802}
  m_Material: {fileID: 0}
  m_IsTrigger: 0
  m_Enabled: 1
  serializedVersion: 4
  m_Convex: 1
  m_CookingOptions: 30
  m_Mesh: {fileID: -2430927432915415974, guid: 10ea85919be67ab4d80eb54503613dfb, type: 3}
--- !u!64 &1226878041
MeshCollider:
  m_ObjectHideFlags: 0
  m_CorrespondingSourceObject: {fileID: 0}
  m_PrefabInstance: {fileID: 0}
  m_PrefabAsset: {fileID: 0}
  m_GameObject: {fileID: 6041969656517301443}
  m_Material: {fileID: 0}
  m_IsTrigger: 0
  m_Enabled: 1
  serializedVersion: 4
  m_Convex: 1
  m_CookingOptions: 30
  m_Mesh: {fileID: -8757525303914641201, guid: 10ea85919be67ab4d80eb54503613dfb, type: 3}
--- !u!1001 &2351315012545059289
PrefabInstance:
  m_ObjectHideFlags: 0
  serializedVersion: 2
  m_Modification:
    m_TransformParent: {fileID: 0}
    m_Modifications:
    - target: {fileID: -8679921383154817045, guid: 10ea85919be67ab4d80eb54503613dfb, type: 3}
      propertyPath: m_RootOrder
      value: 0
      objectReference: {fileID: 0}
    - target: {fileID: -8679921383154817045, guid: 10ea85919be67ab4d80eb54503613dfb, type: 3}
      propertyPath: m_LocalScale.x
      value: 100
      objectReference: {fileID: 0}
    - target: {fileID: -8679921383154817045, guid: 10ea85919be67ab4d80eb54503613dfb, type: 3}
      propertyPath: m_LocalScale.y
      value: 100
      objectReference: {fileID: 0}
    - target: {fileID: -8679921383154817045, guid: 10ea85919be67ab4d80eb54503613dfb, type: 3}
      propertyPath: m_LocalScale.z
      value: 100
      objectReference: {fileID: 0}
    - target: {fileID: -8679921383154817045, guid: 10ea85919be67ab4d80eb54503613dfb, type: 3}
      propertyPath: m_LocalPosition.x
      value: -8
      objectReference: {fileID: 0}
    - target: {fileID: -8679921383154817045, guid: 10ea85919be67ab4d80eb54503613dfb, type: 3}
      propertyPath: m_LocalPosition.y
      value: -0.91
      objectReference: {fileID: 0}
    - target: {fileID: -8679921383154817045, guid: 10ea85919be67ab4d80eb54503613dfb, type: 3}
      propertyPath: m_LocalPosition.z
      value: 13.77
      objectReference: {fileID: 0}
    - target: {fileID: -8679921383154817045, guid: 10ea85919be67ab4d80eb54503613dfb, type: 3}
      propertyPath: m_LocalRotation.w
      value: 0.7071068
      objectReference: {fileID: 0}
    - target: {fileID: -8679921383154817045, guid: 10ea85919be67ab4d80eb54503613dfb, type: 3}
      propertyPath: m_LocalRotation.x
      value: 0
      objectReference: {fileID: 0}
    - target: {fileID: -8679921383154817045, guid: 10ea85919be67ab4d80eb54503613dfb, type: 3}
      propertyPath: m_LocalRotation.y
      value: 0.7071068
      objectReference: {fileID: 0}
    - target: {fileID: -8679921383154817045, guid: 10ea85919be67ab4d80eb54503613dfb, type: 3}
      propertyPath: m_LocalRotation.z
      value: 0
      objectReference: {fileID: 0}
    - target: {fileID: -8679921383154817045, guid: 10ea85919be67ab4d80eb54503613dfb, type: 3}
      propertyPath: m_LocalEulerAnglesHint.x
      value: 0
      objectReference: {fileID: 0}
    - target: {fileID: -8679921383154817045, guid: 10ea85919be67ab4d80eb54503613dfb, type: 3}
      propertyPath: m_LocalEulerAnglesHint.y
      value: 90
      objectReference: {fileID: 0}
    - target: {fileID: -8679921383154817045, guid: 10ea85919be67ab4d80eb54503613dfb, type: 3}
      propertyPath: m_LocalEulerAnglesHint.z
      value: 0
      objectReference: {fileID: 0}
    - target: {fileID: -5471083144632388838, guid: 10ea85919be67ab4d80eb54503613dfb, type: 3}
      propertyPath: m_StaticEditorFlags
      value: 2147483647
      objectReference: {fileID: 0}
    - target: {fileID: -5354504352098002606, guid: 10ea85919be67ab4d80eb54503613dfb, type: 3}
      propertyPath: m_StaticEditorFlags
      value: 2147483647
      objectReference: {fileID: 0}
    - target: {fileID: -5235501788432820312, guid: 10ea85919be67ab4d80eb54503613dfb, type: 3}
      propertyPath: m_StaticEditorFlags
      value: 2147483647
      objectReference: {fileID: 0}
    - target: {fileID: -4460972165376064483, guid: 10ea85919be67ab4d80eb54503613dfb, type: 3}
      propertyPath: m_StaticEditorFlags
      value: 2147483647
      objectReference: {fileID: 0}
    - target: {fileID: -3217201047580286253, guid: 10ea85919be67ab4d80eb54503613dfb, type: 3}
      propertyPath: m_StaticEditorFlags
      value: 2147483647
      objectReference: {fileID: 0}
    - target: {fileID: -902707911792423654, guid: 10ea85919be67ab4d80eb54503613dfb, type: 3}
      propertyPath: m_StaticEditorFlags
      value: 2147483647
      objectReference: {fileID: 0}
    - target: {fileID: 919132149155446097, guid: 10ea85919be67ab4d80eb54503613dfb, type: 3}
      propertyPath: m_Name
      value: bus_01
      objectReference: {fileID: 0}
    - target: {fileID: 919132149155446097, guid: 10ea85919be67ab4d80eb54503613dfb, type: 3}
      propertyPath: m_TagString
      value: Ground
      objectReference: {fileID: 0}
    - target: {fileID: 919132149155446097, guid: 10ea85919be67ab4d80eb54503613dfb, type: 3}
      propertyPath: m_StaticEditorFlags
      value: 2147483647
      objectReference: {fileID: 0}
    - target: {fileID: 4823901923876677908, guid: 10ea85919be67ab4d80eb54503613dfb, type: 3}
      propertyPath: m_StaticEditorFlags
      value: 2147483647
      objectReference: {fileID: 0}
    m_RemovedComponents: []
  m_SourcePrefab: {fileID: 100100000, guid: 10ea85919be67ab4d80eb54503613dfb, type: 3}
--- !u!1 &8357476095418497802 stripped
GameObject:
  m_CorrespondingSourceObject: {fileID: -3217201047580286253, guid: 10ea85919be67ab4d80eb54503613dfb, type: 3}
  m_PrefabInstance: {fileID: 2351315012545059289}
  m_PrefabAsset: {fileID: 0}
--- !u!1 &6041969656517301443 stripped
GameObject:
  m_CorrespondingSourceObject: {fileID: -902707911792423654, guid: 10ea85919be67ab4d80eb54503613dfb, type: 3}
  m_PrefabInstance: {fileID: 2351315012545059289}
  m_PrefabAsset: {fileID: 0}
