%YAML 1.1
%TAG !u! tag:unity3d.com,2011:
--- !u!54 &6837556
Rigidbody:
  m_ObjectHideFlags: 0
  m_CorrespondingSourceObject: {fileID: 0}
  m_PrefabInstance: {fileID: 0}
  m_PrefabAsset: {fileID: 0}
  m_GameObject: {fileID: 6292982106577911401}
  serializedVersion: 2
  m_Mass: 0.5
  m_Drag: 0
  m_AngularDrag: 0.05
  m_UseGravity: 1
  m_IsKinematic: 0
  m_Interpolate: 0
  m_Constraints: 0
  m_CollisionDetection: 0
--- !u!64 &6837555
MeshCollider:
  m_ObjectHideFlags: 0
  m_CorrespondingSourceObject: {fileID: 0}
  m_PrefabInstance: {fileID: 0}
  m_PrefabAsset: {fileID: 0}
  m_GameObject: {fileID: 6292982106577911401}
  m_Material: {fileID: 0}
  m_IsTrigger: 0
  m_Enabled: 1
  serializedVersion: 4
  m_Convex: 1
  m_CookingOptions: 30
  m_Mesh: {fileID: 4300000, guid: fcc30f2beefeaf94e990407639b18736, type: 3}
--- !u!114 &8663391291747196709
MonoBehaviour:
  m_ObjectHideFlags: 0
  m_CorrespondingSourceObject: {fileID: 0}
  m_PrefabInstance: {fileID: 0}
  m_PrefabAsset: {fileID: 0}
  m_GameObject: {fileID: 6292982106577911401}
  m_Enabled: 1
  m_EditorHideFlags: 0
  m_Script: {fileID: 11500000, guid: e2b5ba798141fff45811ccaa15d98c07, type: 3}
  m_Name: 
  m_EditorClassIdentifier: 
--- !u!1001 &6292536848948748349
PrefabInstance:
  m_ObjectHideFlags: 0
  serializedVersion: 2
  m_Modification:
    m_TransformParent: {fileID: 0}
    m_Modifications:
    - target: {fileID: 1896720402374228, guid: baa8d2066558c9a4ebcd1853c4c3ac4e, type: 3}
      propertyPath: m_Name
      value: food
      objectReference: {fileID: 0}
    - target: {fileID: 1896720402374228, guid: baa8d2066558c9a4ebcd1853c4c3ac4e, type: 3}
      propertyPath: m_TagString
      value: item
      objectReference: {fileID: 0}
    - target: {fileID: 4582117764247738, guid: baa8d2066558c9a4ebcd1853c4c3ac4e, type: 3}
      propertyPath: m_RootOrder
      value: 0
      objectReference: {fileID: 0}
    - target: {fileID: 4582117764247738, guid: baa8d2066558c9a4ebcd1853c4c3ac4e, type: 3}
      propertyPath: m_LocalScale.x
      value: 0.5
      objectReference: {fileID: 0}
    - target: {fileID: 4582117764247738, guid: baa8d2066558c9a4ebcd1853c4c3ac4e, type: 3}
      propertyPath: m_LocalScale.y
      value: 0.5
      objectReference: {fileID: 0}
    - target: {fileID: 4582117764247738, guid: baa8d2066558c9a4ebcd1853c4c3ac4e, type: 3}
      propertyPath: m_LocalScale.z
      value: 0.5
      objectReference: {fileID: 0}
    - target: {fileID: 4582117764247738, guid: baa8d2066558c9a4ebcd1853c4c3ac4e, type: 3}
      propertyPath: m_LocalPosition.x
      value: 5.139
      objectReference: {fileID: 0}
    - target: {fileID: 4582117764247738, guid: baa8d2066558c9a4ebcd1853c4c3ac4e, type: 3}
      propertyPath: m_LocalPosition.y
      value: 0.492
      objectReference: {fileID: 0}
    - target: {fileID: 4582117764247738, guid: baa8d2066558c9a4ebcd1853c4c3ac4e, type: 3}
      propertyPath: m_LocalPosition.z
      value: 1.042
      objectReference: {fileID: 0}
    - target: {fileID: 4582117764247738, guid: baa8d2066558c9a4ebcd1853c4c3ac4e, type: 3}
      propertyPath: m_LocalRotation.w
      value: 1
      objectReference: {fileID: 0}
    - target: {fileID: 4582117764247738, guid: baa8d2066558c9a4ebcd1853c4c3ac4e, type: 3}
      propertyPath: m_LocalRotation.x
      value: 0
      objectReference: {fileID: 0}
    - target: {fileID: 4582117764247738, guid: baa8d2066558c9a4ebcd1853c4c3ac4e, type: 3}
      propertyPath: m_LocalRotation.y
      value: 0
      objectReference: {fileID: 0}
    - target: {fileID: 4582117764247738, guid: baa8d2066558c9a4ebcd1853c4c3ac4e, type: 3}
      propertyPath: m_LocalRotation.z
      value: 0
      objectReference: {fileID: 0}
    - target: {fileID: 4582117764247738, guid: baa8d2066558c9a4ebcd1853c4c3ac4e, type: 3}
      propertyPath: m_LocalEulerAnglesHint.x
      value: 0
      objectReference: {fileID: 0}
    - target: {fileID: 4582117764247738, guid: baa8d2066558c9a4ebcd1853c4c3ac4e, type: 3}
      propertyPath: m_LocalEulerAnglesHint.y
      value: 0
      objectReference: {fileID: 0}
    - target: {fileID: 4582117764247738, guid: baa8d2066558c9a4ebcd1853c4c3ac4e, type: 3}
      propertyPath: m_LocalEulerAnglesHint.z
      value: 0
      objectReference: {fileID: 0}
    m_RemovedComponents:
    - {fileID: 95041019010786384, guid: baa8d2066558c9a4ebcd1853c4c3ac4e, type: 3}
  m_SourcePrefab: {fileID: 100100000, guid: baa8d2066558c9a4ebcd1853c4c3ac4e, type: 3}
--- !u!1 &6292982106577911401 stripped
GameObject:
  m_CorrespondingSourceObject: {fileID: 1896720402374228, guid: baa8d2066558c9a4ebcd1853c4c3ac4e, type: 3}
  m_PrefabInstance: {fileID: 6292536848948748349}
  m_PrefabAsset: {fileID: 0}
