%YAML 1.1
%TAG !u! tag:unity3d.com,2011:
--- !u!54 &583641049
Rigidbody:
  m_ObjectHideFlags: 0
  m_CorrespondingSourceObject: {fileID: 0}
  m_PrefabInstance: {fileID: 0}
  m_PrefabAsset: {fileID: 0}
  m_GameObject: {fileID: 2235115416774096212}
  serializedVersion: 2
  m_Mass: 4
  m_Drag: 0
  m_AngularDrag: 0.05
  m_UseGravity: 1
  m_IsKinematic: 0
  m_Interpolate: 0
  m_Constraints: 0
  m_CollisionDetection: 0
--- !u!64 &583641048
MeshCollider:
  m_ObjectHideFlags: 0
  m_CorrespondingSourceObject: {fileID: 0}
  m_PrefabInstance: {fileID: 0}
  m_PrefabAsset: {fileID: 0}
  m_GameObject: {fileID: 2235115416774096212}
  m_Material: {fileID: 0}
  m_IsTrigger: 0
  m_Enabled: 1
  serializedVersion: 4
  m_Convex: 1
  m_CookingOptions: 30
  m_Mesh: {fileID: 3744501094556469539, guid: f62f7dc06bd890d4aab43b8fd635fe02, type: 3}
--- !u!114 &6375820198288853325
MonoBehaviour:
  m_ObjectHideFlags: 0
  m_CorrespondingSourceObject: {fileID: 0}
  m_PrefabInstance: {fileID: 0}
  m_PrefabAsset: {fileID: 0}
  m_GameObject: {fileID: 2235115416774096212}
  m_Enabled: 1
  m_EditorHideFlags: 0
  m_Script: {fileID: 11500000, guid: 30960aa5ef35d844abcdaacbd28770f8, type: 3}
  m_Name: 
  m_EditorClassIdentifier: 
--- !u!1001 &1424774039890331653
PrefabInstance:
  m_ObjectHideFlags: 0
  serializedVersion: 2
  m_Modification:
    m_TransformParent: {fileID: 0}
    m_Modifications:
    - target: {fileID: -8679921383154817045, guid: f62f7dc06bd890d4aab43b8fd635fe02, type: 3}
      propertyPath: m_RootOrder
      value: 0
      objectReference: {fileID: 0}
    - target: {fileID: -8679921383154817045, guid: f62f7dc06bd890d4aab43b8fd635fe02, type: 3}
      propertyPath: m_LocalScale.x
      value: 0.2
      objectReference: {fileID: 0}
    - target: {fileID: -8679921383154817045, guid: f62f7dc06bd890d4aab43b8fd635fe02, type: 3}
      propertyPath: m_LocalScale.y
      value: 0.2
      objectReference: {fileID: 0}
    - target: {fileID: -8679921383154817045, guid: f62f7dc06bd890d4aab43b8fd635fe02, type: 3}
      propertyPath: m_LocalScale.z
      value: 0.2
      objectReference: {fileID: 0}
    - target: {fileID: -8679921383154817045, guid: f62f7dc06bd890d4aab43b8fd635fe02, type: 3}
      propertyPath: m_LocalPosition.x
      value: 22.67206
      objectReference: {fileID: 0}
    - target: {fileID: -8679921383154817045, guid: f62f7dc06bd890d4aab43b8fd635fe02, type: 3}
      propertyPath: m_LocalPosition.y
      value: 0.361
      objectReference: {fileID: 0}
    - target: {fileID: -8679921383154817045, guid: f62f7dc06bd890d4aab43b8fd635fe02, type: 3}
      propertyPath: m_LocalPosition.z
      value: -8.185
      objectReference: {fileID: 0}
    - target: {fileID: -8679921383154817045, guid: f62f7dc06bd890d4aab43b8fd635fe02, type: 3}
      propertyPath: m_LocalRotation.w
      value: 1
      objectReference: {fileID: 0}
    - target: {fileID: -8679921383154817045, guid: f62f7dc06bd890d4aab43b8fd635fe02, type: 3}
      propertyPath: m_LocalRotation.x
      value: 0
      objectReference: {fileID: 0}
    - target: {fileID: -8679921383154817045, guid: f62f7dc06bd890d4aab43b8fd635fe02, type: 3}
      propertyPath: m_LocalRotation.y
      value: -0
      objectReference: {fileID: 0}
    - target: {fileID: -8679921383154817045, guid: f62f7dc06bd890d4aab43b8fd635fe02, type: 3}
      propertyPath: m_LocalRotation.z
      value: -0
      objectReference: {fileID: 0}
    - target: {fileID: -8679921383154817045, guid: f62f7dc06bd890d4aab43b8fd635fe02, type: 3}
      propertyPath: m_LocalEulerAnglesHint.x
      value: 0
      objectReference: {fileID: 0}
    - target: {fileID: -8679921383154817045, guid: f62f7dc06bd890d4aab43b8fd635fe02, type: 3}
      propertyPath: m_LocalEulerAnglesHint.y
      value: 0
      objectReference: {fileID: 0}
    - target: {fileID: -8679921383154817045, guid: f62f7dc06bd890d4aab43b8fd635fe02, type: 3}
      propertyPath: m_LocalEulerAnglesHint.z
      value: 0
      objectReference: {fileID: 0}
    - target: {fileID: -7511558181221131132, guid: f62f7dc06bd890d4aab43b8fd635fe02, type: 3}
      propertyPath: m_Materials.Array.data[0]
      value: 
      objectReference: {fileID: 2100000, guid: 0c24ff3f078566f4d9d83ee8bd6a3f72, type: 2}
    - target: {fileID: 919132149155446097, guid: f62f7dc06bd890d4aab43b8fd635fe02, type: 3}
      propertyPath: m_Name
      value: Shotgun level 1
      objectReference: {fileID: 0}
    - target: {fileID: 919132149155446097, guid: f62f7dc06bd890d4aab43b8fd635fe02, type: 3}
      propertyPath: m_TagString
      value: item
      objectReference: {fileID: 0}
    m_RemovedComponents: []
  m_SourcePrefab: {fileID: 100100000, guid: f62f7dc06bd890d4aab43b8fd635fe02, type: 3}
--- !u!1 &2235115416774096212 stripped
GameObject:
  m_CorrespondingSourceObject: {fileID: 919132149155446097, guid: f62f7dc06bd890d4aab43b8fd635fe02, type: 3}
  m_PrefabInstance: {fileID: 1424774039890331653}
  m_PrefabAsset: {fileID: 0}
