%YAML 1.1
%TAG !u! tag:unity3d.com,2011:
--- !u!1001 &816252606353496875
PrefabInstance:
  m_ObjectHideFlags: 0
  serializedVersion: 2
  m_Modification:
    m_TransformParent: {fileID: 0}
    m_Modifications:
    - target: {fileID: 1387771410, guid: 4dded7ba3042e004582e25c8b8ef148a, type: 3}
      propertyPath: m_Size.z
      value: 0.04936483
      objectReference: {fileID: 0}
    - target: {fileID: 1387771410, guid: 4dded7ba3042e004582e25c8b8ef148a, type: 3}
      propertyPath: m_Center.z
      value: 0.01409699
      objectReference: {fileID: 0}
    - target: {fileID: 1154645420346246813, guid: 4dded7ba3042e004582e25c8b8ef148a, type: 3}
      propertyPath: m_RootOrder
      value: 0
      objectReference: {fileID: 0}
    - target: {fileID: 1154645420346246813, guid: 4dded7ba3042e004582e25c8b8ef148a, type: 3}
      propertyPath: m_LocalPosition.x
      value: -1.3326733
      objectReference: {fileID: 0}
    - target: {fileID: 1154645420346246813, guid: 4dded7ba3042e004582e25c8b8ef148a, type: 3}
      propertyPath: m_LocalPosition.y
      value: 0.143
      objectReference: {fileID: 0}
    - target: {fileID: 1154645420346246813, guid: 4dded7ba3042e004582e25c8b8ef148a, type: 3}
      propertyPath: m_LocalPosition.z
      value: -7.050889
      objectReference: {fileID: 0}
    - target: {fileID: 1154645420346246813, guid: 4dded7ba3042e004582e25c8b8ef148a, type: 3}
      propertyPath: m_LocalRotation.w
      value: 0.7071068
      objectReference: {fileID: 0}
    - target: {fileID: 1154645420346246813, guid: 4dded7ba3042e004582e25c8b8ef148a, type: 3}
      propertyPath: m_LocalRotation.x
      value: 0.7071068
      objectReference: {fileID: 0}
    - target: {fileID: 1154645420346246813, guid: 4dded7ba3042e004582e25c8b8ef148a, type: 3}
      propertyPath: m_LocalRotation.y
      value: 0
      objectReference: {fileID: 0}
    - target: {fileID: 1154645420346246813, guid: 4dded7ba3042e004582e25c8b8ef148a, type: 3}
      propertyPath: m_LocalRotation.z
      value: 0
      objectReference: {fileID: 0}
    - target: {fileID: 1154645420346246813, guid: 4dded7ba3042e004582e25c8b8ef148a, type: 3}
      propertyPath: m_LocalEulerAnglesHint.x
      value: 90
      objectReference: {fileID: 0}
    - target: {fileID: 1154645420346246813, guid: 4dded7ba3042e004582e25c8b8ef148a, type: 3}
      propertyPath: m_LocalEulerAnglesHint.y
      value: 0
      objectReference: {fileID: 0}
    - target: {fileID: 1154645420346246813, guid: 4dded7ba3042e004582e25c8b8ef148a, type: 3}
      propertyPath: m_LocalEulerAnglesHint.z
      value: 0
      objectReference: {fileID: 0}
    - target: {fileID: 1156579698295855161, guid: 4dded7ba3042e004582e25c8b8ef148a, type: 3}
      propertyPath: m_Name
      value: MatirialGreen
      objectReference: {fileID: 0}
    - target: {fileID: 1156579698295855161, guid: 4dded7ba3042e004582e25c8b8ef148a, type: 3}
      propertyPath: m_IsActive
      value: 1
      objectReference: {fileID: 0}
    m_RemovedComponents: []
  m_SourcePrefab: {fileID: 100100000, guid: 4dded7ba3042e004582e25c8b8ef148a, type: 3}
