%YAML 1.1
%TAG !u! tag:unity3d.com,2011:
--- !u!54 &5451315302903374351
Rigidbody:
  m_ObjectHideFlags: 0
  m_CorrespondingSourceObject: {fileID: 0}
  m_PrefabInstance: {fileID: 0}
  m_PrefabAsset: {fileID: 0}
  m_GameObject: {fileID: 1830738713596116925}
  serializedVersion: 2
  m_Mass: 4
  m_Drag: 0
  m_AngularDrag: 0.05
  m_UseGravity: 1
  m_IsKinematic: 0
  m_Interpolate: 0
  m_Constraints: 0
  m_CollisionDetection: 0
--- !u!64 &5451315302903374336
MeshCollider:
  m_ObjectHideFlags: 0
  m_CorrespondingSourceObject: {fileID: 0}
  m_PrefabInstance: {fileID: 0}
  m_PrefabAsset: {fileID: 0}
  m_GameObject: {fileID: 1830738713596116925}
  m_Material: {fileID: 0}
  m_IsTrigger: 0
  m_Enabled: 1
  serializedVersion: 4
  m_Convex: 1
  m_CookingOptions: 30
  m_Mesh: {fileID: -7773350712032519188, guid: e525d5c90c0df01498dca09570cfb5ec, type: 3}
--- !u!114 &122436798623861963
MonoBehaviour:
  m_ObjectHideFlags: 0
  m_CorrespondingSourceObject: {fileID: 0}
  m_PrefabInstance: {fileID: 0}
  m_PrefabAsset: {fileID: 0}
  m_GameObject: {fileID: 1830738713596116925}
  m_Enabled: 1
  m_EditorHideFlags: 0
  m_Script: {fileID: 11500000, guid: 56d197571693268448bc25565fd85378, type: 3}
  m_Name: 
  m_EditorClassIdentifier: 
--- !u!1001 &1560918353378181868
PrefabInstance:
  m_ObjectHideFlags: 0
  serializedVersion: 2
  m_Modification:
    m_TransformParent: {fileID: 0}
    m_Modifications:
    - target: {fileID: -8679921383154817045, guid: e525d5c90c0df01498dca09570cfb5ec, type: 3}
      propertyPath: m_RootOrder
      value: 0
      objectReference: {fileID: 0}
    - target: {fileID: -8679921383154817045, guid: e525d5c90c0df01498dca09570cfb5ec, type: 3}
      propertyPath: m_LocalScale.x
      value: 0.2
      objectReference: {fileID: 0}
    - target: {fileID: -8679921383154817045, guid: e525d5c90c0df01498dca09570cfb5ec, type: 3}
      propertyPath: m_LocalScale.y
      value: 0.2
      objectReference: {fileID: 0}
    - target: {fileID: -8679921383154817045, guid: e525d5c90c0df01498dca09570cfb5ec, type: 3}
      propertyPath: m_LocalScale.z
      value: 0.2
      objectReference: {fileID: 0}
    - target: {fileID: -8679921383154817045, guid: e525d5c90c0df01498dca09570cfb5ec, type: 3}
      propertyPath: m_LocalPosition.x
      value: 10.98762
      objectReference: {fileID: 0}
    - target: {fileID: -8679921383154817045, guid: e525d5c90c0df01498dca09570cfb5ec, type: 3}
      propertyPath: m_LocalPosition.y
      value: 0.40693605
      objectReference: {fileID: 0}
    - target: {fileID: -8679921383154817045, guid: e525d5c90c0df01498dca09570cfb5ec, type: 3}
      propertyPath: m_LocalPosition.z
      value: -7.974
      objectReference: {fileID: 0}
    - target: {fileID: -8679921383154817045, guid: e525d5c90c0df01498dca09570cfb5ec, type: 3}
      propertyPath: m_LocalRotation.w
      value: 1
      objectReference: {fileID: 0}
    - target: {fileID: -8679921383154817045, guid: e525d5c90c0df01498dca09570cfb5ec, type: 3}
      propertyPath: m_LocalRotation.x
      value: 0
      objectReference: {fileID: 0}
    - target: {fileID: -8679921383154817045, guid: e525d5c90c0df01498dca09570cfb5ec, type: 3}
      propertyPath: m_LocalRotation.y
      value: -0
      objectReference: {fileID: 0}
    - target: {fileID: -8679921383154817045, guid: e525d5c90c0df01498dca09570cfb5ec, type: 3}
      propertyPath: m_LocalRotation.z
      value: -0
      objectReference: {fileID: 0}
    - target: {fileID: -8679921383154817045, guid: e525d5c90c0df01498dca09570cfb5ec, type: 3}
      propertyPath: m_LocalEulerAnglesHint.x
      value: 0
      objectReference: {fileID: 0}
    - target: {fileID: -8679921383154817045, guid: e525d5c90c0df01498dca09570cfb5ec, type: 3}
      propertyPath: m_LocalEulerAnglesHint.y
      value: 0
      objectReference: {fileID: 0}
    - target: {fileID: -8679921383154817045, guid: e525d5c90c0df01498dca09570cfb5ec, type: 3}
      propertyPath: m_LocalEulerAnglesHint.z
      value: 0
      objectReference: {fileID: 0}
    - target: {fileID: -7511558181221131132, guid: e525d5c90c0df01498dca09570cfb5ec, type: 3}
      propertyPath: m_Materials.Array.data[0]
      value: 
      objectReference: {fileID: 2100000, guid: 9a50065a1e4866b42946175d9a5f86b6, type: 2}
    - target: {fileID: 919132149155446097, guid: e525d5c90c0df01498dca09570cfb5ec, type: 3}
      propertyPath: m_Name
      value: assault rifle level 1
      objectReference: {fileID: 0}
    - target: {fileID: 919132149155446097, guid: e525d5c90c0df01498dca09570cfb5ec, type: 3}
      propertyPath: m_TagString
      value: item
      objectReference: {fileID: 0}
    m_RemovedComponents: []
  m_SourcePrefab: {fileID: 100100000, guid: e525d5c90c0df01498dca09570cfb5ec, type: 3}
--- !u!1 &1830738713596116925 stripped
GameObject:
  m_CorrespondingSourceObject: {fileID: 919132149155446097, guid: e525d5c90c0df01498dca09570cfb5ec, type: 3}
  m_PrefabInstance: {fileID: 1560918353378181868}
  m_PrefabAsset: {fileID: 0}
