%YAML 1.1
%TAG !u! tag:unity3d.com,2011:
--- !u!54 &1472678958
Rigidbody:
  m_ObjectHideFlags: 0
  m_CorrespondingSourceObject: {fileID: 0}
  m_PrefabInstance: {fileID: 0}
  m_PrefabAsset: {fileID: 0}
  m_GameObject: {fileID: 5425251988139261928}
  serializedVersion: 2
  m_Mass: 4
  m_Drag: 0
  m_AngularDrag: 0.05
  m_UseGravity: 1
  m_IsKinematic: 0
  m_Interpolate: 0
  m_Constraints: 0
  m_CollisionDetection: 0
--- !u!64 &1472678959
MeshCollider:
  m_ObjectHideFlags: 0
  m_CorrespondingSourceObject: {fileID: 0}
  m_PrefabInstance: {fileID: 0}
  m_PrefabAsset: {fileID: 0}
  m_GameObject: {fileID: 5425251988139261928}
  m_Material: {fileID: 0}
  m_IsTrigger: 0
  m_Enabled: 1
  serializedVersion: 4
  m_Convex: 1
  m_CookingOptions: 30
  m_Mesh: {fileID: 3970777539395967273, guid: ca1c64f7c147fb0479f9ef03e264a372, type: 3}
--- !u!114 &6263202599924468414
MonoBehaviour:
  m_ObjectHideFlags: 0
  m_CorrespondingSourceObject: {fileID: 0}
  m_PrefabInstance: {fileID: 0}
  m_PrefabAsset: {fileID: 0}
  m_GameObject: {fileID: 5425251988139261928}
  m_Enabled: 1
  m_EditorHideFlags: 0
  m_Script: {fileID: 11500000, guid: f6459743793aa8441bf182efda8a80c1, type: 3}
  m_Name: 
  m_EditorClassIdentifier: 
--- !u!1001 &5155271517042934457
PrefabInstance:
  m_ObjectHideFlags: 0
  serializedVersion: 2
  m_Modification:
    m_TransformParent: {fileID: 0}
    m_Modifications:
    - target: {fileID: -8679921383154817045, guid: ca1c64f7c147fb0479f9ef03e264a372, type: 3}
      propertyPath: m_RootOrder
      value: 0
      objectReference: {fileID: 0}
    - target: {fileID: -8679921383154817045, guid: ca1c64f7c147fb0479f9ef03e264a372, type: 3}
      propertyPath: m_LocalScale.x
      value: 0.2
      objectReference: {fileID: 0}
    - target: {fileID: -8679921383154817045, guid: ca1c64f7c147fb0479f9ef03e264a372, type: 3}
      propertyPath: m_LocalScale.y
      value: 0.2
      objectReference: {fileID: 0}
    - target: {fileID: -8679921383154817045, guid: ca1c64f7c147fb0479f9ef03e264a372, type: 3}
      propertyPath: m_LocalScale.z
      value: 0.2
      objectReference: {fileID: 0}
    - target: {fileID: -8679921383154817045, guid: ca1c64f7c147fb0479f9ef03e264a372, type: 3}
      propertyPath: m_LocalPosition.x
      value: 20.75
      objectReference: {fileID: 0}
    - target: {fileID: -8679921383154817045, guid: ca1c64f7c147fb0479f9ef03e264a372, type: 3}
      propertyPath: m_LocalPosition.y
      value: 0.22082603
      objectReference: {fileID: 0}
    - target: {fileID: -8679921383154817045, guid: ca1c64f7c147fb0479f9ef03e264a372, type: 3}
      propertyPath: m_LocalPosition.z
      value: -7.967
      objectReference: {fileID: 0}
    - target: {fileID: -8679921383154817045, guid: ca1c64f7c147fb0479f9ef03e264a372, type: 3}
      propertyPath: m_LocalRotation.w
      value: 1
      objectReference: {fileID: 0}
    - target: {fileID: -8679921383154817045, guid: ca1c64f7c147fb0479f9ef03e264a372, type: 3}
      propertyPath: m_LocalRotation.x
      value: 0
      objectReference: {fileID: 0}
    - target: {fileID: -8679921383154817045, guid: ca1c64f7c147fb0479f9ef03e264a372, type: 3}
      propertyPath: m_LocalRotation.y
      value: -0
      objectReference: {fileID: 0}
    - target: {fileID: -8679921383154817045, guid: ca1c64f7c147fb0479f9ef03e264a372, type: 3}
      propertyPath: m_LocalRotation.z
      value: -0
      objectReference: {fileID: 0}
    - target: {fileID: -8679921383154817045, guid: ca1c64f7c147fb0479f9ef03e264a372, type: 3}
      propertyPath: m_LocalEulerAnglesHint.x
      value: 0
      objectReference: {fileID: 0}
    - target: {fileID: -8679921383154817045, guid: ca1c64f7c147fb0479f9ef03e264a372, type: 3}
      propertyPath: m_LocalEulerAnglesHint.y
      value: 0
      objectReference: {fileID: 0}
    - target: {fileID: -8679921383154817045, guid: ca1c64f7c147fb0479f9ef03e264a372, type: 3}
      propertyPath: m_LocalEulerAnglesHint.z
      value: 0
      objectReference: {fileID: 0}
    - target: {fileID: -7511558181221131132, guid: ca1c64f7c147fb0479f9ef03e264a372, type: 3}
      propertyPath: m_Materials.Array.data[0]
      value: 
      objectReference: {fileID: 2100000, guid: afdf30d8614b11d41a6337e2484e3570, type: 2}
    - target: {fileID: 919132149155446097, guid: ca1c64f7c147fb0479f9ef03e264a372, type: 3}
      propertyPath: m_Name
      value: Pistol with muffler (2)
      objectReference: {fileID: 0}
    - target: {fileID: 919132149155446097, guid: ca1c64f7c147fb0479f9ef03e264a372, type: 3}
      propertyPath: m_TagString
      value: item
      objectReference: {fileID: 0}
    m_RemovedComponents: []
  m_SourcePrefab: {fileID: 100100000, guid: ca1c64f7c147fb0479f9ef03e264a372, type: 3}
--- !u!1 &5425251988139261928 stripped
GameObject:
  m_CorrespondingSourceObject: {fileID: 919132149155446097, guid: ca1c64f7c147fb0479f9ef03e264a372, type: 3}
  m_PrefabInstance: {fileID: 5155271517042934457}
  m_PrefabAsset: {fileID: 0}
