%YAML 1.1
%TAG !u! tag:unity3d.com,2011:
--- !u!54 &3476309868242662637
Rigidbody:
  m_ObjectHideFlags: 0
  m_CorrespondingSourceObject: {fileID: 0}
  m_PrefabInstance: {fileID: 0}
  m_PrefabAsset: {fileID: 0}
  m_GameObject: {fileID: 8646457180119728841}
  serializedVersion: 2
  m_Mass: 3
  m_Drag: 0
  m_AngularDrag: 0.05
  m_UseGravity: 1
  m_IsKinematic: 0
  m_Interpolate: 0
  m_Constraints: 0
  m_CollisionDetection: 0
--- !u!64 &3476309868242662634
MeshCollider:
  m_ObjectHideFlags: 0
  m_CorrespondingSourceObject: {fileID: 0}
  m_PrefabInstance: {fileID: 0}
  m_PrefabAsset: {fileID: 0}
  m_GameObject: {fileID: 8646457180119728841}
  m_Material: {fileID: 0}
  m_IsTrigger: 0
  m_Enabled: 1
  serializedVersion: 4
  m_Convex: 1
  m_CookingOptions: 30
  m_Mesh: {fileID: -5009023928823820679, guid: 2cf10fa706c7a4d42b5927d8e730f4e2, type: 3}
--- !u!114 &324197170386101974
MonoBehaviour:
  m_ObjectHideFlags: 0
  m_CorrespondingSourceObject: {fileID: 0}
  m_PrefabInstance: {fileID: 0}
  m_PrefabAsset: {fileID: 0}
  m_GameObject: {fileID: 8646457180119728841}
  m_Enabled: 1
  m_EditorHideFlags: 0
  m_Script: {fileID: 11500000, guid: 509aa1c5f6e50944488d469c456393c5, type: 3}
  m_Name: 
  m_EditorClassIdentifier: 
--- !u!1001 &8880829288679784344
PrefabInstance:
  m_ObjectHideFlags: 0
  serializedVersion: 2
  m_Modification:
    m_TransformParent: {fileID: 0}
    m_Modifications:
    - target: {fileID: -8679921383154817045, guid: 2cf10fa706c7a4d42b5927d8e730f4e2, type: 3}
      propertyPath: m_RootOrder
      value: 0
      objectReference: {fileID: 0}
    - target: {fileID: -8679921383154817045, guid: 2cf10fa706c7a4d42b5927d8e730f4e2, type: 3}
      propertyPath: m_LocalScale.x
      value: 0.2
      objectReference: {fileID: 0}
    - target: {fileID: -8679921383154817045, guid: 2cf10fa706c7a4d42b5927d8e730f4e2, type: 3}
      propertyPath: m_LocalScale.y
      value: 0.2
      objectReference: {fileID: 0}
    - target: {fileID: -8679921383154817045, guid: 2cf10fa706c7a4d42b5927d8e730f4e2, type: 3}
      propertyPath: m_LocalScale.z
      value: 0.2
      objectReference: {fileID: 0}
    - target: {fileID: -8679921383154817045, guid: 2cf10fa706c7a4d42b5927d8e730f4e2, type: 3}
      propertyPath: m_LocalPosition.x
      value: 3.5110521
      objectReference: {fileID: 0}
    - target: {fileID: -8679921383154817045, guid: 2cf10fa706c7a4d42b5927d8e730f4e2, type: 3}
      propertyPath: m_LocalPosition.y
      value: 0.59710914
      objectReference: {fileID: 0}
    - target: {fileID: -8679921383154817045, guid: 2cf10fa706c7a4d42b5927d8e730f4e2, type: 3}
      propertyPath: m_LocalPosition.z
      value: -5.655
      objectReference: {fileID: 0}
    - target: {fileID: -8679921383154817045, guid: 2cf10fa706c7a4d42b5927d8e730f4e2, type: 3}
      propertyPath: m_LocalRotation.w
      value: 1
      objectReference: {fileID: 0}
    - target: {fileID: -8679921383154817045, guid: 2cf10fa706c7a4d42b5927d8e730f4e2, type: 3}
      propertyPath: m_LocalRotation.x
      value: 0
      objectReference: {fileID: 0}
    - target: {fileID: -8679921383154817045, guid: 2cf10fa706c7a4d42b5927d8e730f4e2, type: 3}
      propertyPath: m_LocalRotation.y
      value: -0
      objectReference: {fileID: 0}
    - target: {fileID: -8679921383154817045, guid: 2cf10fa706c7a4d42b5927d8e730f4e2, type: 3}
      propertyPath: m_LocalRotation.z
      value: -0
      objectReference: {fileID: 0}
    - target: {fileID: -8679921383154817045, guid: 2cf10fa706c7a4d42b5927d8e730f4e2, type: 3}
      propertyPath: m_LocalEulerAnglesHint.x
      value: 0
      objectReference: {fileID: 0}
    - target: {fileID: -8679921383154817045, guid: 2cf10fa706c7a4d42b5927d8e730f4e2, type: 3}
      propertyPath: m_LocalEulerAnglesHint.y
      value: 0
      objectReference: {fileID: 0}
    - target: {fileID: -8679921383154817045, guid: 2cf10fa706c7a4d42b5927d8e730f4e2, type: 3}
      propertyPath: m_LocalEulerAnglesHint.z
      value: 0
      objectReference: {fileID: 0}
    - target: {fileID: -7511558181221131132, guid: 2cf10fa706c7a4d42b5927d8e730f4e2, type: 3}
      propertyPath: m_Materials.Array.data[0]
      value: 
      objectReference: {fileID: 2100000, guid: 42ff7de5af3ca404cbf8813deacd8dbb, type: 2}
    - target: {fileID: 919132149155446097, guid: 2cf10fa706c7a4d42b5927d8e730f4e2, type: 3}
      propertyPath: m_Name
      value: Submachine-gun
      objectReference: {fileID: 0}
    - target: {fileID: 919132149155446097, guid: 2cf10fa706c7a4d42b5927d8e730f4e2, type: 3}
      propertyPath: m_TagString
      value: item
      objectReference: {fileID: 0}
    m_RemovedComponents: []
  m_SourcePrefab: {fileID: 100100000, guid: 2cf10fa706c7a4d42b5927d8e730f4e2, type: 3}
--- !u!1 &8646457180119728841 stripped
GameObject:
  m_CorrespondingSourceObject: {fileID: 919132149155446097, guid: 2cf10fa706c7a4d42b5927d8e730f4e2, type: 3}
  m_PrefabInstance: {fileID: 8880829288679784344}
  m_PrefabAsset: {fileID: 0}
