%YAML 1.1
%TAG !u! tag:unity3d.com,2011:
--- !u!54 &1754113298
Rigidbody:
  m_ObjectHideFlags: 0
  m_CorrespondingSourceObject: {fileID: 0}
  m_PrefabInstance: {fileID: 0}
  m_PrefabAsset: {fileID: 0}
  m_GameObject: {fileID: 6256814982898453457}
  serializedVersion: 2
  m_Mass: 100
  m_Drag: 0
  m_AngularDrag: 0.05
  m_UseGravity: 1
  m_IsKinematic: 0
  m_Interpolate: 0
  m_Constraints: 0
  m_CollisionDetection: 0
--- !u!1001 &6256814982898582853
PrefabInstance:
  m_ObjectHideFlags: 0
  serializedVersion: 2
  m_Modification:
    m_TransformParent: {fileID: 0}
    m_Modifications:
    - target: {fileID: 134804, guid: bec5527a8490b524696a6ab7a2993759, type: 3}
      propertyPath: m_Name
      value: stone_13
      objectReference: {fileID: 0}
    - target: {fileID: 134804, guid: bec5527a8490b524696a6ab7a2993759, type: 3}
      propertyPath: m_TagString
      value: stone
      objectReference: {fileID: 0}
    - target: {fileID: 415022, guid: bec5527a8490b524696a6ab7a2993759, type: 3}
      propertyPath: m_RootOrder
      value: 0
      objectReference: {fileID: 0}
    - target: {fileID: 415022, guid: bec5527a8490b524696a6ab7a2993759, type: 3}
      propertyPath: m_LocalPosition.x
      value: 7.8651104
      objectReference: {fileID: 0}
    - target: {fileID: 415022, guid: bec5527a8490b524696a6ab7a2993759, type: 3}
      propertyPath: m_LocalPosition.y
      value: -9.11
      objectReference: {fileID: 0}
    - target: {fileID: 415022, guid: bec5527a8490b524696a6ab7a2993759, type: 3}
      propertyPath: m_LocalPosition.z
      value: 5.610999
      objectReference: {fileID: 0}
    - target: {fileID: 415022, guid: bec5527a8490b524696a6ab7a2993759, type: 3}
      propertyPath: m_LocalRotation.w
      value: 0
      objectReference: {fileID: 0}
    - target: {fileID: 415022, guid: bec5527a8490b524696a6ab7a2993759, type: 3}
      propertyPath: m_LocalRotation.x
      value: -0
      objectReference: {fileID: 0}
    - target: {fileID: 415022, guid: bec5527a8490b524696a6ab7a2993759, type: 3}
      propertyPath: m_LocalRotation.y
      value: -0.70710695
      objectReference: {fileID: 0}
    - target: {fileID: 415022, guid: bec5527a8490b524696a6ab7a2993759, type: 3}
      propertyPath: m_LocalRotation.z
      value: -0.7071066
      objectReference: {fileID: 0}
    - target: {fileID: 415022, guid: bec5527a8490b524696a6ab7a2993759, type: 3}
      propertyPath: m_LocalEulerAnglesHint.x
      value: 0
      objectReference: {fileID: 0}
    - target: {fileID: 415022, guid: bec5527a8490b524696a6ab7a2993759, type: 3}
      propertyPath: m_LocalEulerAnglesHint.y
      value: 0
      objectReference: {fileID: 0}
    - target: {fileID: 415022, guid: bec5527a8490b524696a6ab7a2993759, type: 3}
      propertyPath: m_LocalEulerAnglesHint.z
      value: 0
      objectReference: {fileID: 0}
    m_RemovedComponents: []
  m_SourcePrefab: {fileID: 100100000, guid: bec5527a8490b524696a6ab7a2993759, type: 3}
--- !u!1 &6256814982898453457 stripped
GameObject:
  m_CorrespondingSourceObject: {fileID: 134804, guid: bec5527a8490b524696a6ab7a2993759, type: 3}
  m_PrefabInstance: {fileID: 6256814982898582853}
  m_PrefabAsset: {fileID: 0}
