%YAML 1.1
%TAG !u! tag:unity3d.com,2011:
--- !u!54 &1792112961
Rigidbody:
  m_ObjectHideFlags: 0
  m_CorrespondingSourceObject: {fileID: 0}
  m_PrefabInstance: {fileID: 0}
  m_PrefabAsset: {fileID: 0}
  m_GameObject: {fileID: 3161530336722178607}
  serializedVersion: 2
  m_Mass: 100
  m_Drag: 0
  m_AngularDrag: 0.05
  m_UseGravity: 1
  m_IsKinematic: 0
  m_Interpolate: 0
  m_Constraints: 0
  m_CollisionDetection: 0
--- !u!1001 &3161530336722033345
PrefabInstance:
  m_ObjectHideFlags: 0
  serializedVersion: 2
  m_Modification:
    m_TransformParent: {fileID: 0}
    m_Modifications:
    - target: {fileID: 149742, guid: 8da8c0fcb96f1784c9091b814918bc01, type: 3}
      propertyPath: m_Name
      value: stone_01
      objectReference: {fileID: 0}
    - target: {fileID: 149742, guid: 8da8c0fcb96f1784c9091b814918bc01, type: 3}
      propertyPath: m_TagString
      value: stone
      objectReference: {fileID: 0}
    - target: {fileID: 439126, guid: 8da8c0fcb96f1784c9091b814918bc01, type: 3}
      propertyPath: m_RootOrder
      value: 0
      objectReference: {fileID: 0}
    - target: {fileID: 439126, guid: 8da8c0fcb96f1784c9091b814918bc01, type: 3}
      propertyPath: m_LocalPosition.x
      value: 6.505537
      objectReference: {fileID: 0}
    - target: {fileID: 439126, guid: 8da8c0fcb96f1784c9091b814918bc01, type: 3}
      propertyPath: m_LocalPosition.y
      value: -9.202
      objectReference: {fileID: 0}
    - target: {fileID: 439126, guid: 8da8c0fcb96f1784c9091b814918bc01, type: 3}
      propertyPath: m_LocalPosition.z
      value: 5.6799994
      objectReference: {fileID: 0}
    - target: {fileID: 439126, guid: 8da8c0fcb96f1784c9091b814918bc01, type: 3}
      propertyPath: m_LocalRotation.w
      value: 0
      objectReference: {fileID: 0}
    - target: {fileID: 439126, guid: 8da8c0fcb96f1784c9091b814918bc01, type: 3}
      propertyPath: m_LocalRotation.x
      value: -0
      objectReference: {fileID: 0}
    - target: {fileID: 439126, guid: 8da8c0fcb96f1784c9091b814918bc01, type: 3}
      propertyPath: m_LocalRotation.y
      value: -0.70710695
      objectReference: {fileID: 0}
    - target: {fileID: 439126, guid: 8da8c0fcb96f1784c9091b814918bc01, type: 3}
      propertyPath: m_LocalRotation.z
      value: -0.7071066
      objectReference: {fileID: 0}
    - target: {fileID: 439126, guid: 8da8c0fcb96f1784c9091b814918bc01, type: 3}
      propertyPath: m_LocalEulerAnglesHint.x
      value: 0
      objectReference: {fileID: 0}
    - target: {fileID: 439126, guid: 8da8c0fcb96f1784c9091b814918bc01, type: 3}
      propertyPath: m_LocalEulerAnglesHint.y
      value: 0
      objectReference: {fileID: 0}
    - target: {fileID: 439126, guid: 8da8c0fcb96f1784c9091b814918bc01, type: 3}
      propertyPath: m_LocalEulerAnglesHint.z
      value: 0
      objectReference: {fileID: 0}
    m_RemovedComponents: []
  m_SourcePrefab: {fileID: 100100000, guid: 8da8c0fcb96f1784c9091b814918bc01, type: 3}
--- !u!1 &3161530336722178607 stripped
GameObject:
  m_CorrespondingSourceObject: {fileID: 149742, guid: 8da8c0fcb96f1784c9091b814918bc01, type: 3}
  m_PrefabInstance: {fileID: 3161530336722033345}
  m_PrefabAsset: {fileID: 0}
