%YAML 1.1
%TAG !u! tag:unity3d.com,2011:
--- !u!54 &1928458694
Rigidbody:
  m_ObjectHideFlags: 0
  m_CorrespondingSourceObject: {fileID: 0}
  m_PrefabInstance: {fileID: 0}
  m_PrefabAsset: {fileID: 0}
  m_GameObject: {fileID: 1378322136912281858}
  serializedVersion: 2
  m_Mass: 5
  m_Drag: 0
  m_AngularDrag: 0.05
  m_UseGravity: 1
  m_IsKinematic: 0
  m_Interpolate: 0
  m_Constraints: 0
  m_CollisionDetection: 0
--- !u!65 &1928458695
BoxCollider:
  m_ObjectHideFlags: 0
  m_CorrespondingSourceObject: {fileID: 0}
  m_PrefabInstance: {fileID: 0}
  m_PrefabAsset: {fileID: 0}
  m_GameObject: {fileID: 1378322136912281858}
  m_Material: {fileID: 0}
  m_IsTrigger: 0
  m_Enabled: 1
  serializedVersion: 2
  m_Size: {x: 1.4839087, y: 2.4865942, z: 0.063567616}
  m_Center: {x: 0.0046830177, y: 0.0087509155, z: 0.017405238}
--- !u!1001 &1379954417666414916
PrefabInstance:
  m_ObjectHideFlags: 0
  serializedVersion: 2
  m_Modification:
    m_TransformParent: {fileID: 0}
    m_Modifications:
    - target: {fileID: 1791744585373766, guid: 91d0f8059efded145a5cbf26801a3dab, type: 3}
      propertyPath: m_Name
      value: Metal_Plate_4
      objectReference: {fileID: 0}
    - target: {fileID: 1791744585373766, guid: 91d0f8059efded145a5cbf26801a3dab, type: 3}
      propertyPath: m_TagString
      value: material
      objectReference: {fileID: 0}
    - target: {fileID: 4264744022169880, guid: 91d0f8059efded145a5cbf26801a3dab, type: 3}
      propertyPath: m_RootOrder
      value: 0
      objectReference: {fileID: 0}
    - target: {fileID: 4264744022169880, guid: 91d0f8059efded145a5cbf26801a3dab, type: 3}
      propertyPath: m_LocalPosition.x
      value: 5.9593544
      objectReference: {fileID: 0}
    - target: {fileID: 4264744022169880, guid: 91d0f8059efded145a5cbf26801a3dab, type: 3}
      propertyPath: m_LocalPosition.y
      value: 1.251
      objectReference: {fileID: 0}
    - target: {fileID: 4264744022169880, guid: 91d0f8059efded145a5cbf26801a3dab, type: 3}
      propertyPath: m_LocalPosition.z
      value: -9.506
      objectReference: {fileID: 0}
    - target: {fileID: 4264744022169880, guid: 91d0f8059efded145a5cbf26801a3dab, type: 3}
      propertyPath: m_LocalRotation.w
      value: 0.7071068
      objectReference: {fileID: 0}
    - target: {fileID: 4264744022169880, guid: 91d0f8059efded145a5cbf26801a3dab, type: 3}
      propertyPath: m_LocalRotation.x
      value: 0.7071068
      objectReference: {fileID: 0}
    - target: {fileID: 4264744022169880, guid: 91d0f8059efded145a5cbf26801a3dab, type: 3}
      propertyPath: m_LocalRotation.y
      value: 0
      objectReference: {fileID: 0}
    - target: {fileID: 4264744022169880, guid: 91d0f8059efded145a5cbf26801a3dab, type: 3}
      propertyPath: m_LocalRotation.z
      value: 0
      objectReference: {fileID: 0}
    - target: {fileID: 4264744022169880, guid: 91d0f8059efded145a5cbf26801a3dab, type: 3}
      propertyPath: m_LocalEulerAnglesHint.x
      value: 90
      objectReference: {fileID: 0}
    - target: {fileID: 4264744022169880, guid: 91d0f8059efded145a5cbf26801a3dab, type: 3}
      propertyPath: m_LocalEulerAnglesHint.y
      value: 0
      objectReference: {fileID: 0}
    - target: {fileID: 4264744022169880, guid: 91d0f8059efded145a5cbf26801a3dab, type: 3}
      propertyPath: m_LocalEulerAnglesHint.z
      value: 0
      objectReference: {fileID: 0}
    m_RemovedComponents: []
  m_SourcePrefab: {fileID: 100100000, guid: 91d0f8059efded145a5cbf26801a3dab, type: 3}
--- !u!1 &1378322136912281858 stripped
GameObject:
  m_CorrespondingSourceObject: {fileID: 1791744585373766, guid: 91d0f8059efded145a5cbf26801a3dab, type: 3}
  m_PrefabInstance: {fileID: 1379954417666414916}
  m_PrefabAsset: {fileID: 0}
