%YAML 1.1
%TAG !u! tag:unity3d.com,2011:
--- !u!54 &1513889788
Rigidbody:
  m_ObjectHideFlags: 0
  m_CorrespondingSourceObject: {fileID: 0}
  m_PrefabInstance: {fileID: 0}
  m_PrefabAsset: {fileID: 0}
  m_GameObject: {fileID: 7110674310740176968}
  serializedVersion: 2
  m_Mass: 3
  m_Drag: 0
  m_AngularDrag: 0.05
  m_UseGravity: 1
  m_IsKinematic: 0
  m_Interpolate: 0
  m_Constraints: 0
  m_CollisionDetection: 0
--- !u!64 &1513889786
MeshCollider:
  m_ObjectHideFlags: 0
  m_CorrespondingSourceObject: {fileID: 0}
  m_PrefabInstance: {fileID: 0}
  m_PrefabAsset: {fileID: 0}
  m_GameObject: {fileID: 7110674310740176968}
  m_Material: {fileID: 0}
  m_IsTrigger: 0
  m_Enabled: 1
  serializedVersion: 4
  m_Convex: 1
  m_CookingOptions: 30
  m_Mesh: {fileID: -7182689631186222527, guid: 8f9696fb6017be144a307b6586855ac0, type: 3}
--- !u!65 &1513889787
BoxCollider:
  m_ObjectHideFlags: 0
  m_CorrespondingSourceObject: {fileID: 0}
  m_PrefabInstance: {fileID: 0}
  m_PrefabAsset: {fileID: 0}
  m_GameObject: {fileID: 7110674310740176968}
  m_Material: {fileID: 0}
  m_IsTrigger: 1
  m_Enabled: 1
  serializedVersion: 2
  m_Size: {x: 0.26056075, y: 0.971557, z: 1.6699742}
  m_Center: {x: 0, y: 0.050266325, z: -0.10166764}
--- !u!1001 &7957677255732546841
PrefabInstance:
  m_ObjectHideFlags: 0
  serializedVersion: 2
  m_Modification:
    m_TransformParent: {fileID: 0}
    m_Modifications:
    - target: {fileID: -8679921383154817045, guid: 8f9696fb6017be144a307b6586855ac0, type: 3}
      propertyPath: m_RootOrder
      value: 0
      objectReference: {fileID: 0}
    - target: {fileID: -8679921383154817045, guid: 8f9696fb6017be144a307b6586855ac0, type: 3}
      propertyPath: m_LocalScale.x
      value: 0.2
      objectReference: {fileID: 0}
    - target: {fileID: -8679921383154817045, guid: 8f9696fb6017be144a307b6586855ac0, type: 3}
      propertyPath: m_LocalScale.y
      value: 0.2
      objectReference: {fileID: 0}
    - target: {fileID: -8679921383154817045, guid: 8f9696fb6017be144a307b6586855ac0, type: 3}
      propertyPath: m_LocalScale.z
      value: 0.2
      objectReference: {fileID: 0}
    - target: {fileID: -8679921383154817045, guid: 8f9696fb6017be144a307b6586855ac0, type: 3}
      propertyPath: m_LocalPosition.x
      value: 2.469
      objectReference: {fileID: 0}
    - target: {fileID: -8679921383154817045, guid: 8f9696fb6017be144a307b6586855ac0, type: 3}
      propertyPath: m_LocalPosition.y
      value: 0.43551219
      objectReference: {fileID: 0}
    - target: {fileID: -8679921383154817045, guid: 8f9696fb6017be144a307b6586855ac0, type: 3}
      propertyPath: m_LocalPosition.z
      value: 0.046
      objectReference: {fileID: 0}
    - target: {fileID: -8679921383154817045, guid: 8f9696fb6017be144a307b6586855ac0, type: 3}
      propertyPath: m_LocalRotation.w
      value: 1
      objectReference: {fileID: 0}
    - target: {fileID: -8679921383154817045, guid: 8f9696fb6017be144a307b6586855ac0, type: 3}
      propertyPath: m_LocalRotation.x
      value: 0
      objectReference: {fileID: 0}
    - target: {fileID: -8679921383154817045, guid: 8f9696fb6017be144a307b6586855ac0, type: 3}
      propertyPath: m_LocalRotation.y
      value: -0
      objectReference: {fileID: 0}
    - target: {fileID: -8679921383154817045, guid: 8f9696fb6017be144a307b6586855ac0, type: 3}
      propertyPath: m_LocalRotation.z
      value: -0
      objectReference: {fileID: 0}
    - target: {fileID: -8679921383154817045, guid: 8f9696fb6017be144a307b6586855ac0, type: 3}
      propertyPath: m_LocalEulerAnglesHint.x
      value: 0
      objectReference: {fileID: 0}
    - target: {fileID: -8679921383154817045, guid: 8f9696fb6017be144a307b6586855ac0, type: 3}
      propertyPath: m_LocalEulerAnglesHint.y
      value: 0
      objectReference: {fileID: 0}
    - target: {fileID: -8679921383154817045, guid: 8f9696fb6017be144a307b6586855ac0, type: 3}
      propertyPath: m_LocalEulerAnglesHint.z
      value: 0
      objectReference: {fileID: 0}
    - target: {fileID: -7511558181221131132, guid: 8f9696fb6017be144a307b6586855ac0, type: 3}
      propertyPath: m_Materials.Array.data[0]
      value: 
      objectReference: {fileID: 2100000, guid: 7c16b6e19b642c247ba765631635ff9e, type: 2}
    - target: {fileID: 919132149155446097, guid: 8f9696fb6017be144a307b6586855ac0, type: 3}
      propertyPath: m_Name
      value: pistol
      objectReference: {fileID: 0}
    - target: {fileID: 919132149155446097, guid: 8f9696fb6017be144a307b6586855ac0, type: 3}
      propertyPath: m_TagString
      value: item
      objectReference: {fileID: 0}
    m_RemovedComponents: []
  m_SourcePrefab: {fileID: 100100000, guid: 8f9696fb6017be144a307b6586855ac0, type: 3}
--- !u!1 &7110674310740176968 stripped
GameObject:
  m_CorrespondingSourceObject: {fileID: 919132149155446097, guid: 8f9696fb6017be144a307b6586855ac0, type: 3}
  m_PrefabInstance: {fileID: 7957677255732546841}
  m_PrefabAsset: {fileID: 0}
